{
  "type": "techreborn:blast_furnace",
  "power": 128,
  "time": 140,
  "ingredients": [
    {
      "item": "minecraft:iron_horse_armor",
      "count": 1
    },
    {
      "item": "minecraft:sand",
      "count": 1
    }
  ],
  "results": [
    {
      "item": "minecraft:iron_ingot",
      "count": 4
    },
    {
      "item": "techreborn:dark_ashes_dust"
    }
  ],
  "heat": 1000
}