{
    "__createdwith": "opl's Model Creator",
    "ambientocclusion": true,
    "textures": {
        "particle": "block/custom/berrybush/leaves",
        "other": "block/custom/berrybush/other"
    },
    "elements": [
        {
            "from": [7,0,7],
            "to": [9,10,9],
            "faces": {
                "up": {
                    "uv": [2,2,4,4],
                    "texture": "#other"
                },
                "down": {
                    "uv": [0,6,2,8],
                    "texture": "#other"
                },
                "west": {
                    "uv": [0,2,2,12],
                    "texture": "#other"
                },
                "east": {
                    "uv": [0,2,2,12],
                    "texture": "#other"
                },
                "north": {
                    "uv": [0,2,2,12],
                    "texture": "#other"
                },
                "south": {
                    "uv": [0,2,2,12],
                    "texture": "#other"
                }
            }
        },
        {
            "from": [2,3,2],
            "to": [14,15,14],
            "faces": {
                "up": {
                    "texture": "#particle"
                },
                "down": {
                    "texture": "#particle"
                },
                "west": {
                    "uv": [2,2,14,14],
                    "texture": "#particle"
                },
                "east": {
                    "uv": [0,0,12,12],
                    "texture": "#particle"
                },
                "north": {
                    "uv": [0,4,12,16],
                    "texture": "#particle"
                },
                "south": {
                    "uv": [4,0,16,12],
                    "texture": "#particle"
                }
            }
        },
        {
            "from": [1,12,9],
            "to": [3,14,11],
            "faces": {
                "up": {
                    "uv": [2,0,4,2],
                    "texture": "#other"
                },
                "down": {
                    "uv": [6,0,8,2],
                    "texture": "#other"
                },
                "west": {
                    "uv": [0,0,2,2],
                    "texture": "#other"
                },
                "east": {
                    "uv": [0,0,2,2],
                    "texture": "#other"
                },
                "north": {
                    "uv": [0,0,2,2],
                    "texture": "#other"
                },
                "south": {
                    "uv": [0,0,2,2],
                    "texture": "#other"
                }
            }
        },
        {
            "from": [7,5,13],
            "to": [9,7,15],
            "faces": {
                "up": {
                    "uv": [2,0,4,2],
                    "texture": "#other"
                },
                "down": {
                    "uv": [6,0,8,2],
                    "texture": "#other"
                },
                "west": {
                    "uv": [0,0,2,2],
                    "texture": "#other"
                },
                "east": {
                    "uv": [0,0,2,2],
                    "texture": "#other"
                },
                "north": {
                    "uv": [0,0,2,2],
                    "texture": "#other"
                },
                "south": {
                    "uv": [0,0,2,2],
                    "texture": "#other"
                }
            }
        },
        {
            "from": [13,7,6],
            "to": [15,9,8],
            "faces": {
                "up": {
                    "uv": [2,0,4,2],
                    "texture": "#other"
                },
                "down": {
                    "uv": [6,0,8,2],
                    "texture": "#other"
                },
                "west": {
                    "uv": [0,0,2,2],
                    "texture": "#other"
                },
                "east": {
                    "uv": [0,0,2,2],
                    "texture": "#other"
                },
                "north": {
                    "uv": [0,0,2,2],
                    "texture": "#other"
                },
                "south": {
                    "uv": [0,0,2,2],
                    "texture": "#other"
                }
            }
        },
        {
            "from": [5,8,1],
            "to": [7,10,3],
            "faces": {
                "up": {
                    "uv": [2,0,4,2],
                    "texture": "#other"
                },
                "down": {
                    "uv": [6,0,8,2],
                    "texture": "#other"
                },
                "west": {
                    "uv": [0,0,2,2],
                    "texture": "#other"
                },
                "east": {
                    "uv": [0,0,2,2],
                    "texture": "#other"
                },
                "north": {
                    "uv": [0,0,2,2],
                    "texture": "#other"
                },
                "south": {
                    "uv": [0,0,2,2],
                    "texture": "#other"
                }
            }
        },
        {
            "from": [6,14,7],
            "to": [8,16,9],
            "faces": {
                "up": {
                    "uv": [2,0,4,2],
                    "texture": "#other"
                },
                "down": {
                    "uv": [6,0,8,2],
                    "texture": "#other"
                },
                "west": {
                    "uv": [0,0,2,2],
                    "texture": "#other"
                },
                "east": {
                    "uv": [0,0,2,2],
                    "texture": "#other"
                },
                "north": {
                    "uv": [0,0,2,2],
                    "texture": "#other"
                },
                "south": {
                    "uv": [0,0,2,2],
                    "texture": "#other"
                }
            }
        }
    ]
}