{
  "type": "techreborn:industrial_sawmill",
  "power": 30,
  "time": 100,
  "ingredients": [
    {
      "item": "minecraft:acacia_stairs",
      "count": 1
    }
  ],
  "results": [
    {
      "item": "minecraft:acacia_slab"
    },
    {
      "item": "techreborn:saw_dust",
      "count": 2
    }
  ],
  "tank": {
    "fluid": "minecraft:water",
    "amount": {
      "droplets": 20250
    }
  }
}