{
  "type": "techreborn:industrial_sawmill",
  "power": 40,
  "time": 200,
  "ingredients": [
    {
      "tag": "minecraft:crimson_stems"
    }
  ],
  "results": [
    {
      "item": "minecraft:crimson_planks",
      "count": 4
    },
    {
      "item": "techreborn:saw_dust",
      "count": 3
    }
  ],
  "tank": {
    "fluid": "minecraft:water",
    "amount": {
      "droplets": 81000
    }
  }
}