{
  "type": "techreborn:industrial_sawmill",
  "power": 30,
  "time": 200,
  "ingredients": [
    {
      "tag": "minecraft:wooden_trapdoors"
    }
  ],
  "results": [
    {
      "item": "techreborn:saw_dust"
    }
  ],
  "tank": {
    "fluid": "minecraft:water",
    "amount": {
      "droplets": 10125
    }
  }
}