{
    "variants": {
        "axis=y": [
		{ "model": "block/bone_block", "weight": 12 },
		{ "model": "block/bone/a", "weight": 3 },
		{ "model": "block/bone/b", "weight": 3 },
		{ "model": "block/bone/c", "weight": 3 }
		],
        "axis=z": [
		{ "model": "block/bone_block", "weight": 12, "x": 90 },
		{ "model": "block/bone/a", "weight": 3, "x": 90 },
		{ "model": "block/bone/b", "weight": 3, "x": 90 },
		{ "model": "block/bone/c", "weight": 3, "x": 90 }
		],
        "axis=x": [
		{ "model": "block/bone_block", "weight": 12, "x": 90, "y": 90 },
		{ "model": "block/bone/a", "weight": 3, "x": 90, "y": 90 },
		{ "model": "block/bone/b", "weight": 3, "x": 90, "y": 90 },
		{ "model": "block/bone/c", "weight": 3, "x": 90, "y": 90 }
		]
    }
}
