{
    "variants": {
        "": [
		{ "model": "minecraft:block/cobbled_deepslate", "weight": 3 },
		{ "model": "block/cobbleddeepslate/a", "weight": 3 },
		{ "model": "block/cobbleddeepslate/b", "weight": 3 },
		{ "model": "block/cobbleddeepslate/c", "weight": 3 },
		{ "model": "block/cobbleddeepslate/d", "weight": 3 },
		{ "model": "block/cobbleddeepslate/e", "weight": 6 }
		]
    }
}
