{
    "variants": {
        "": [
			{ "model": "block/dead_bush", "weight": 101 },
			{ "model": "block/deadbush/a", "weight": 100 },
			{ "model": "block/deadbush/b", "weight": 100 },
			{ "model": "block/deadbush/c", "weight": 100 },
			{ "model": "block/deadbush/d", "weight": 100 },
			{ "model": "block/deadbush/e", "weight": 100 }
		]
    }
}
