{
    "variants": {
        "": [
			{ "model": "block/deepslate_coal_ore", "weight": 101 },
			{ "model": "block/deepslateore/coal_a", "weight": 100 },
			{ "model": "block/deepslateore/coal_b", "weight": 100 },
			{ "model": "block/deepslateore/coal_c", "weight": 100 }
		]
    }
}
