{
    "variants": {
        "": [
			{ "model": "block/diamond_ore", "weight": 101 },
			{ "model": "block/ore/diamond_a", "weight": 100 },
			{ "model": "block/ore/diamond_b", "weight": 100 },
			{ "model": "block/ore/diamond_c", "weight": 100 }
		]
    }
}
