{
    "variants": {
        "": [
		{ "model": "block/nether_bricks", "weight": 101 },
		{ "model": "block/netherbricks/a", "weight": 100 },
		{ "model": "block/netherbricks/b", "weight": 100 },
		{ "model": "block/netherbricks/c", "weight": 100 }
		]
    }
}
