{
    "variants": {
        "": [
			{ "model": "block/red_mushroom", "weight": 100 },
			{ "model": "block/mushroom/red_a", "weight": 98 },
			{ "model": "block/mushroom/red_b", "weight": 98 },
			{ "model": "block/mushroom/red_c", "weight": 98 },
			{ "model": "block/mushroom/red_d", "weight": 98 },
			{ "model": "block/mushroom/red_e", "weight": 98 },
			{ "model": "block/mushroom/red_f", "weight": 98 }
		]
    }
}
