{
    "variants": {
        "": [
		{ "model": "block/chiseledsandstone/normal", "weight": 101 },
		{ "model": "block/chiseledsandstone/a", "weight": 100 },
		{ "model": "block/chiseledsandstone/b", "weight": 100 },
		{ "model": "block/chiseledsandstone/c", "weight": 100 },
		{ "model": "block/chiseledsandstone/d", "weight": 100 }
		]
    }
}
