{
    "variants": {
        "": [
			{ "model": "block/deepslate_emerald_ore", "weight": 101 },
			{ "model": "block/deepslateore/emerald_a", "weight": 100 },
			{ "model": "block/deepslateore/emerald_b", "weight": 100 },
			{ "model": "block/deepslateore/emerald_c", "weight": 100 }
		]
    }
}
