{
    "variants": {
        "": [
		{ "model": "block/flower/daisy", "weight": 100 },
		{ "model": "block/flower/daisy_a", "weight": 99 },
		{ "model": "block/flower/daisy_b", "weight": 99 },
		{ "model": "block/flower/daisy_c", "weight": 99 },
		{ "model": "block/flower/daisy_d", "weight": 99 }
		]
    }
}
