{
    "variants": {
        "": [
			{ "model": "block/redstone_ore", "weight": 101 },
			{ "model": "block/ore/redstone_a", "weight": 100 },
			{ "model": "block/ore/redstone_b", "weight": 100 },
			{ "model": "block/ore/redstone_c", "weight": 100 }
		]
    }
}
