{
    "variants": {
        "": [
		{ "model": "block/stone", "weight": 101 },
		{ "model": "block/stone/a", "weight": 100 },
		{ "model": "block/stone/b", "weight": 100 },
		{ "model": "block/stone/c", "weight": 100 },
		{ "model": "block/stone/d", "weight": 100 },
		{ "model": "block/stone/e", "weight": 100 },
		{ "model": "block/stone/f", "weight": 100 }
		]
    }
}
