{
  "type": "minecraft:crafting_shaped",
  "pattern": [
    "X X",
    "XXX",
    "XXX"
  ],
  "key": {
    "X": {
      "tag": "c:bronze_ingots"
    }
  },
  "result": {
    "item": "techreborn:bronze_chestplate"
  }
}