{
  "parent": "block/template_farmland",
  "textures": {
    "particle": "farmersdelight:block/rich_soil",
    "dirt": "farmersdelight:block/rich_soil",
    "top": "farmersdelight:block/rich_soil_farmland"
  }
}
