{
	"parent": "mcwbridges:block/bridge/rope/parent/middle_end",
	"textures": {
		"0": "mcwbridges:block/lead_knot_vert",
		"3": "mcwbridges:block/lead_knot",
		"4": "minecraft:block/crimson_stem",
		"particle": "minecraft:block/crimson_stem"
	}
}
