{
	"parent": "mcwbridges:block/bridge/rope/parent/corner",
	"textures": {
		"0": "mcwbridges:block/lead_knot_vert",
		"4": "minecraft:block/crimson_stem",
		"particle": "minecraft:block/crimson_stem",
		"1_4": "mcwbridges:block/lead_knot"
	}
}
