{
	"parent": "mcwbridges:block/bridge/rope/parent/corner_clear",
	"textures": {
		"0": "mcwbridges:block/lead_knot_vert",
		"4": "minecraft:block/spruce_log",
		"particle": "minecraft:block/spruce_log",
		"1_4": "mcwbridges:block/lead_knot"
	}
}
