{
  "type": "techreborn:extractor",
  "power": 10,
  "time": 150,
  "ingredients": [
    {
      "item": "minecraft:experience_bottle",
      "count": 1
    }
  ],
  "results": [
    {
      "item": "minecraft:glass_bottle"
    }
  ]
}