{
	"parent": "mcwbridges:block/stair/rope/parent/right",
	"textures": {
		"0": "mcwbridges:block/lead_knot_vert",
		"2": "minecraft:block/oak_planks",
		"3": "mcwbridges:block/lead_knot",
		"4": "minecraft:block/oak_log",
		"particle": "minecraft:block/oak_log"
	}
}
