{
	"parent": "mcwbridges:block/bridge/rail/parent/corner",
	"textures": {
		"0": "minecraft:block/oak_log",
		"2": "minecraft:block/oak_planks",
		"3": "minecraft:block/oak_log_top",
		"particle": "minecraft:block/oak_planks"
	}
}
