{
	"parent": "mcwbridges:block/bridge/rail/parent/side_right",
	"textures": {
		"0": "minecraft:block/warped_stem",
		"2": "minecraft:block/warped_planks",
		"3": "minecraft:block/warped_stem_top",
		"particle": "minecraft:block/warped_planks"
	}
}
