{
  "type": "techreborn:grinder",
  "power": 5,
  "time": 200,
  "ingredients": [
    {
      "tag": "c:chromium_ingots"
    }
  ],
  "results": [
    {
      "item": "techreborn:chrome_dust"
    }
  ]
}