{
  "type": "techreborn:grinder",
  "power": 2,
  "time": 200,
  "ingredients": [
    {
      "item": "minecraft:smooth_red_sandstone_slab",
      "count": 1
    }
  ],
  "results": [
    {
      "item": "minecraft:red_sand",
      "count": 2
    }
  ]
}