{
  "type": "techreborn:grinder",
  "power": 2,
  "time": 200,
  "ingredients": [
    {
      "tag": "c:red_garnet_gems"
    }
  ],
  "results": [
    {
      "item": "techreborn:red_garnet_dust"
    }
  ]
}