{
  "type": "techreborn:grinder",
  "power": 4,
  "time": 200,
  "ingredients": [
    {
      "item": "minecraft:smooth_sandstone",
      "count": 1
    }
  ],
  "results": [
    {
      "item": "minecraft:sand",
      "count": 4
    }
  ]
}