{
  "type": "techreborn:grinder",
  "power": 3,
  "time": 180,
  "ingredients": [
    {
      "tag": "minecraft:signs"
    }
  ],
  "results": [
    {
      "item": "techreborn:saw_small_dust"
    }
  ]
}