{
  "type": "techreborn:industrial_grinder",
  "power": 128,
  "time": 140,
  "ingredients": [
    {
      "item": "techreborn:peridot_boots",
      "count": 1
    }
  ],
  "results": [
    {
      "item": "techreborn:peridot_dust"
    },
    {
      "item": "techreborn:peridot_small_dust",
      "count": 2
    }
  ],
  "tank": {
    "fluid": "minecraft:water",
    "amount": {
      "droplets": 81000
    }
  }
}