{
  "type": "techreborn:industrial_grinder",
  "power": 128,
  "time": 140,
  "ingredients": [
    {
      "item": "techreborn:ruby_chestplate",
      "count": 1
    }
  ],
  "results": [
    {
      "item": "techreborn:ruby_dust",
      "count": 6
    },
    {
      "item": "techreborn:ruby_small_dust"
    }
  ],
  "tank": {
    "fluid": "techreborn:mercury",
    "amount": {
      "droplets": 81000
    }
  }
}