{
  "variants": {
    "age=0,supporting=false":  { "model": "farmersdelight:block/rice_stage0" },
    "age=1,supporting=false":  { "model": "farmersdelight:block/rice_stage1" },
    "age=2,supporting=false":  { "model": "farmersdelight:block/rice_stage2" },
    "age=3,supporting=false":  { "model": "farmersdelight:block/rice_stage3" },
    "age=0,supporting=true":  { "model": "farmersdelight:block/rice_stage0" },
    "age=1,supporting=true":  { "model": "farmersdelight:block/rice_stage1" },
    "age=2,supporting=true":  { "model": "farmersdelight:block/rice_stage2" },
    "age=3,supporting=true":  { "model": "farmersdelight:block/rice_supporting" }
  }
}
