{
  "parent": "minecraft:recipes/root",
  "rewards": {
    "recipes": [
      "techreborn:blast_furnace/silver_ingot_from_helmet"
    ]
  },
  "criteria": {
    "has_silver_helmet": {
      "trigger": "minecraft:inventory_changed",
      "conditions": {
        "items": [
          {
            "items": [
              "techreborn:silver_helmet"
            ]
          }
        ]
      }
    },
    "has_the_recipe": {
      "trigger": "minecraft:recipe_unlocked",
      "conditions": {
        "recipe": "techreborn:blast_furnace/silver_ingot_from_helmet"
      }
    }
  },
  "requirements": [
    [
      "has_silver_helmet",
      "has_the_recipe"
    ]
  ]
}