{
  "parent": "minecraft:recipes/root",
  "rewards": {
    "recipes": [
      "techreborn:blast_furnace/steel_ingot_from_chestplate"
    ]
  },
  "criteria": {
    "has_steel_chestplate": {
      "trigger": "minecraft:inventory_changed",
      "conditions": {
        "items": [
          {
            "items": [
              "techreborn:steel_chestplate"
            ]
          }
        ]
      }
    },
    "has_the_recipe": {
      "trigger": "minecraft:recipe_unlocked",
      "conditions": {
        "recipe": "techreborn:blast_furnace/steel_ingot_from_chestplate"
      }
    }
  },
  "requirements": [
    [
      "has_steel_chestplate",
      "has_the_recipe"
    ]
  ]
}