{
    "__createdwith": "opl's Model Creator",
    "ambientocclusion": false,
    "textures": {
        "particle": "block/pointed_dripstone_down_base"
    },
    "elements": [
        {
            "from": [3,0,3],
            "to": [12,16,12],
            "faces": {
                "up": {
                    "texture": "#particle"
                },
                "west": {
                    "uv": [3.0,0.0,12.0,16.0],
                    "texture": "#particle"
                },
                "east": {
                    "uv": [3.0,0.0,12.0,16.0],
                    "texture": "#particle"
                },
                "north": {
                    "uv": [3.0,0.0,12.0,16.0],
                    "texture": "#particle"
                },
                "south": {
                    "uv": [3.0,0.0,12.0,16.0],
                    "texture": "#particle"
                }
            }
        },
        {
            "from": [2.5,0,2.5],
            "to": [13.5,8,13.5],
            "faces": {
                "up": {
                    "uv": [2.5,2.0,13.5,13.0],
                    "texture": "#particle"
                },
                "west": {
                    "uv": [3.0,0.0,14.0,8.0],
                    "texture": "#particle"
                },
                "east": {
                    "uv": [2.0,8.0,13.0,16.0],
                    "texture": "#particle"
                },
                "north": {
                    "uv": [2.0,6.0,13.0,14.0],
                    "texture": "#particle"
                },
                "south": {
                    "uv": [2.5,0.0,13.5,8.0],
                    "texture": "#particle"
                }
            }
        },
        {
            "from": [3.5,8,4],
            "to": [12.5,20,13],
            "faces": {
                "up": {
                    "uv": [4.0,4.0,13.0,13.0],
                    "texture": "#particle"
                },
                "west": {
                    "uv": [4.0,0.0,13.0,12.0],
                    "texture": "#particle"
                },
                "east": {
                    "uv": [2.0,4.0,11.0,16.0],
                    "texture": "#particle"
                },
                "north": {
                    "uv": [3.0,0.0,12.0,12.0],
                    "texture": "#particle"
                },
                "south": {
                    "uv": [3.0,4.0,12.0,16.0],
                    "texture": "#particle"
                }
            }
        }
    ]
}