{
    "__createdwith": "opl's Model Creator",
    "ambientocclusion": true,
    "textures": {
        "particle": "block/custom/fence/birch"
    },
    "elements": [
        {
            "from": [6,0,6],
            "to": [10,16,10],
            "faces": {
                "up": {
                    "uv": [8,0,12,4],
                    "texture": "#particle"
                },
                "down": {
                    "uv": [8,3,12,7],
                    "texture": "#particle"
                },
                "west": {
                    "uv": [4,0,8,16],
                    "texture": "#particle"
                },
                "east": {
                    "uv": [12,0,16,16],
                    "texture": "#particle"
                },
                "north": {
                    "uv": [0,0,4,16],
                    "texture": "#particle"
                },
                "south": {
                    "uv": [8,0,12,16],
                    "texture": "#particle"
                }
            }
        }
    ]
}