{
	"credit": "Made with Blockbench",
	"textures": {
		"0": "mcwbridges:block/bridge_1",
		"1": "mcwbridges:block/bridge_3",
		"particle": "mcwbridges:block/bridge_1"
	},
	"elements": [
		{
			"from": [0, 0, 0],
			"to": [3, 16, 3],
			"rotation": {"angle": 0, "axis": "y", "origin": [11, 8, 8]},
			"faces": {
				"north": {"uv": [0, 0, 3, 16], "texture": "#0"},
				"east": {"uv": [0, 0, 3, 16], "texture": "#0"},
				"south": {"uv": [0, 0, 3, 16], "texture": "#0"},
				"west": {"uv": [0, 0, 3, 16], "texture": "#0"},
				"up": {"uv": [6, 6, 9, 9], "texture": "#0"},
				"down": {"uv": [0, 0, 3, 3], "texture": "#0", "cullface": "down"}
			}
		},
		{
			"from": [13, 0, 0],
			"to": [16, 16, 3],
			"rotation": {"angle": 0, "axis": "y", "origin": [11, 8, 8]},
			"faces": {
				"north": {"uv": [0, 0, 3, 16], "texture": "#0"},
				"east": {"uv": [0, 0, 3, 16], "texture": "#0"},
				"south": {"uv": [0, 0, 3, 16], "texture": "#0"},
				"west": {"uv": [0, 0, 3, 16], "texture": "#0"},
				"up": {"uv": [6, 6, 9, 9], "texture": "#0"},
				"down": {"uv": [0, 0, 3, 3], "texture": "#0", "cullface": "down"}
			}
		},
		{
			"from": [13, 0, 13],
			"to": [16, 16, 16],
			"rotation": {"angle": 0, "axis": "y", "origin": [11, 8, 8]},
			"faces": {
				"north": {"uv": [0, 0, 3, 16], "texture": "#0"},
				"east": {"uv": [0, 0, 3, 16], "texture": "#0"},
				"south": {"uv": [0, 0, 3, 16], "texture": "#0"},
				"west": {"uv": [0, 0, 3, 16], "texture": "#0"},
				"up": {"uv": [6, 6, 9, 9], "texture": "#0"},
				"down": {"uv": [0, 0, 3, 3], "texture": "#0", "cullface": "down"}
			}
		},
		{
			"from": [0, 0, 13],
			"to": [3, 16, 16],
			"rotation": {"angle": 0, "axis": "y", "origin": [11, 8, 8]},
			"faces": {
				"north": {"uv": [0, 0, 3, 16], "texture": "#0"},
				"east": {"uv": [0, 0, 3, 16], "texture": "#0"},
				"south": {"uv": [0, 0, 3, 16], "texture": "#0"},
				"west": {"uv": [0, 0, 3, 16], "texture": "#0"},
				"up": {"uv": [6, 6, 9, 9], "texture": "#0"},
				"down": {"uv": [0, 0, 3, 3], "texture": "#0", "cullface": "down"}
			}
		},
		{
			"from": [3, 0, 15],
			"to": [13, 14, 15],
			"rotation": {"angle": 0, "axis": "y", "origin": [5, 14, 8]},
			"faces": {
				"north": {"uv": [3, 1, 13, 15], "texture": "#1"},
				"south": {"uv": [3, 1, 13, 15], "texture": "#1"}
			}
		},
		{
			"from": [3, 0, 1],
			"to": [13, 14, 1],
			"rotation": {"angle": 0, "axis": "y", "origin": [5, 14, 8]},
			"faces": {
				"north": {"uv": [3, 1, 13, 15], "texture": "#1"},
				"south": {"uv": [3, 1, 13, 15], "texture": "#1"}
			}
		},
		{
			"from": [15, 0, 3],
			"to": [15, 14, 13],
			"rotation": {"angle": 0, "axis": "y", "origin": [5, 14, 8]},
			"faces": {
				"east": {"uv": [3, 1, 13, 15], "texture": "#1"},
				"west": {"uv": [3, 1, 13, 15], "texture": "#1"}
			}
		},
		{
			"from": [3, 14, 14],
			"to": [13, 16, 15],
			"rotation": {"angle": 0, "axis": "y", "origin": [5, 14, 8]},
			"faces": {
				"north": {"uv": [4, 3, 14, 5], "texture": "#0"},
				"south": {"uv": [2, 3, 12, 5], "texture": "#0"},
				"up": {"uv": [0, 0, 10, 1], "texture": "#0"},
				"down": {"uv": [0, 0, 10, 1], "texture": "#0"}
			}
		},
		{
			"from": [3, 14, 1],
			"to": [13, 16, 2],
			"rotation": {"angle": 0, "axis": "y", "origin": [5, 14, 8]},
			"faces": {
				"north": {"uv": [4, 3, 14, 5], "texture": "#0"},
				"south": {"uv": [2, 3, 12, 5], "texture": "#0"},
				"up": {"uv": [0, 0, 10, 1], "texture": "#0"},
				"down": {"uv": [0, 0, 10, 1], "texture": "#0"}
			}
		},
		{
			"from": [14, 14, 3],
			"to": [15, 16, 13],
			"rotation": {"angle": 0, "axis": "y", "origin": [5, 14, 8]},
			"faces": {
				"east": {"uv": [4, 3, 14, 5], "texture": "#0"},
				"west": {"uv": [2, 3, 12, 5], "texture": "#0"},
				"up": {"uv": [0, 0, 10, 1], "rotation": 90, "texture": "#0"},
				"down": {"uv": [0, 0, 10, 1], "rotation": 270, "texture": "#0"}
			}
		}
	]
}