{
  "type": "techreborn:compressor",
  "power": 10,
  "time": 300,
  "ingredients": [
    {
      "item": "minecraft:gold_ingot",
      "count": 1
    }
  ],
  "results": [
    {
      "item": "techreborn:gold_plate"
    }
  ]
}