{
  "type": "techreborn:compressor",
  "power": 10,
  "time": 300,
  "ingredients": [
    {
      "tag": "c:tungsten_blocks"
    }
  ],
  "results": [
    {
      "item": "techreborn:tungsten_plate",
      "count": 9
    }
  ]
}