{
    "parent": "block/cube_bottom_top",
    "textures": {
        "bottom": "block/red_sandstone_bottom",
        "top": "block/custom/redsandstone/normal_top_a",
        "side": "block/custom/redsandstone/normal_b"
    }
}
