{
  "type": "minecraft:crafting_shapeless",
  "ingredients": [
    {
      "item": "techreborn:raw_silver_storage_block"
    }
  ],
  "result": {
    "item": "techreborn:raw_silver",
    "count": 9
  }
}