{
  "type": "minecraft:crafting_shaped",
  "pattern": [
    "XXX",
    "XXX"
  ],
  "key": {
    "X": {
      "tag": "c:peridot_blocks"
    }
  },
  "result": {
    "item": "techreborn:peridot_storage_block_wall",
    "count": 6
  }
}