{
  "parent": "minecraft:recipes/root",
  "rewards": {
    "recipes": [
      "techreborn:crafting_table/storage_block/raw_tungsten_blocks_slab"
    ]
  },
  "criteria": {
    "has_tag_c_raw_tungsten_blocks": {
      "trigger": "minecraft:inventory_changed",
      "conditions": {
        "items": [
          {
            "tag": "c:raw_tungsten_blocks"
          }
        ]
      }
    },
    "has_the_recipe": {
      "trigger": "minecraft:recipe_unlocked",
      "conditions": {
        "recipe": "techreborn:crafting_table/storage_block/raw_tungsten_blocks_slab"
      }
    }
  },
  "requirements": [
    [
      "has_tag_c_raw_tungsten_blocks",
      "has_the_recipe"
    ]
  ]
}