{
  "parent": "minecraft:recipes/root",
  "rewards": {
    "recipes": [
      "techreborn:crafting_table/storage_block/sapphire_blocks_wall_stonecutter"
    ]
  },
  "criteria": {
    "has_tag_c_sapphire_blocks": {
      "trigger": "minecraft:inventory_changed",
      "conditions": {
        "items": [
          {
            "tag": "c:sapphire_blocks"
          }
        ]
      }
    },
    "has_the_recipe": {
      "trigger": "minecraft:recipe_unlocked",
      "conditions": {
        "recipe": "techreborn:crafting_table/storage_block/sapphire_blocks_wall_stonecutter"
      }
    }
  },
  "requirements": [
    [
      "has_tag_c_sapphire_blocks",
      "has_the_recipe"
    ]
  ]
}