{
  "parent": "minecraft:recipes/root",
  "rewards": {
    "recipes": [
      "minecraft:blasting/bronze_ingot_from_c_bronze_dusts"
    ]
  },
  "criteria": {
    "has_tag_c_bronze_dusts": {
      "trigger": "minecraft:inventory_changed",
      "conditions": {
        "items": [
          {
            "tag": "c:bronze_dusts"
          }
        ]
      }
    },
    "has_the_recipe": {
      "trigger": "minecraft:recipe_unlocked",
      "conditions": {
        "recipe": "minecraft:blasting/bronze_ingot_from_c_bronze_dusts"
      }
    }
  },
  "requirements": [
    [
      "has_tag_c_bronze_dusts",
      "has_the_recipe"
    ]
  ]
}