{
	"credit": "Made with Blockbench",
	"elements": [
		{
			"from": [15, 2, 9.5],
			"to": [15, 15, 14.5],
			"faces": {
				"east": {"uv": [1, 0, 6, 13], "texture": "#0"},
				"west": {"uv": [1, 0, 6, 13], "texture": "#0"}
			}
		},
		{
			"from": [0, 0, 9.5],
			"to": [16, 2, 14.5],
			"faces": {
				"north": {"uv": [0, 0, 16, 2], "texture": "#2"},
				"east": {"uv": [0, 0, 5, 2], "texture": "#2"},
				"south": {"uv": [0, 0, 16, 2], "texture": "#2"},
				"up": {"uv": [0, 0, 16, 5], "texture": "#2"},
				"down": {"uv": [0, 0, 16, 5], "texture": "#2"}
			}
		},
		{
			"from": [0, 7, 1.5],
			"to": [16, 9, 6.5],
			"faces": {
				"north": {"uv": [0, 0, 16, 2], "texture": "#2"},
				"east": {"uv": [0, 0, 5, 2], "texture": "#2"},
				"south": {"uv": [0, 0, 16, 2], "texture": "#2"},
				"up": {"uv": [0, 2, 16, 7], "texture": "#2"},
				"down": {"uv": [0, 0, 16, 5], "texture": "#2"}
			}
		},
		{
			"from": [14, 15, 2],
			"to": [15, 16, 14],
			"faces": {
				"east": {"uv": [0, 1, 12, 2], "texture": "#3"},
				"west": {"uv": [0, 1, 12, 2], "texture": "#3"},
				"up": {"uv": [0, 0, 12, 1], "rotation": 90, "texture": "#3"},
				"down": {"uv": [0, 0, 12, 1], "rotation": 90, "texture": "#3"}
			}
		},
		{
			"from": [14.5, 9, 1.7],
			"to": [14.5, 15, 6.6],
			"faces": {
				"east": {"uv": [1, 0, 5.9, 6], "texture": "#0"},
				"west": {"uv": [1, 0, 5.9, 6], "texture": "#0"}
			}
		},
		{
			"from": [13.1, 0, 0.1],
			"to": [16.1, 16.1, 2.1],
			"faces": {
				"north": {"uv": [0, 0, 3, 16], "texture": "#4"},
				"east": {"uv": [0, 0, 2, 16], "texture": "#4"},
				"south": {"uv": [0, 0, 3, 16], "texture": "#4"},
				"west": {"uv": [0, 0, 2, 16], "texture": "#4"},
				"up": {"uv": [0, 0, 3, 2], "texture": "#4"},
				"down": {"uv": [0, 0, 3, 2], "texture": "#4"}
			}
		},
		{
			"from": [13.1, 0, 13.9],
			"to": [16.1, 16.1, 15.9],
			"faces": {
				"north": {"uv": [0, 0, 3, 16], "texture": "#4"},
				"east": {"uv": [0, 0, 2, 16], "texture": "#4"},
				"south": {"uv": [0, 0, 3, 16], "texture": "#4"},
				"west": {"uv": [0, 0, 2, 16], "texture": "#4"},
				"up": {"uv": [0, 0, 3, 2], "texture": "#4"},
				"down": {"uv": [0, 0, 3, 2], "texture": "#4"}
			}
		}
	],
	"display": {
		"thirdperson_righthand": {
			"rotation": [73, -180, 0],
			"translation": [-0.25, 0, 2.75],
			"scale": [0.4, 0.4, 0.4]
		},
		"thirdperson_lefthand": {
			"rotation": [73, -180, 0],
			"translation": [0, 0, 2.25],
			"scale": [0.4, 0.4, 0.4]
		},
		"firstperson_righthand": {
			"rotation": [0, -75, 0],
			"translation": [0, 1.75, 0],
			"scale": [0.4, 0.4, 0.4]
		},
		"firstperson_lefthand": {
			"rotation": [0, -73, 0],
			"translation": [0, 1.5, 0],
			"scale": [0.4, 0.4, 0.4]
		},
		"ground": {
			"scale": [0.31, 0.31, 0.31]
		},
		"gui": {
			"rotation": [25, 45, 0],
			"scale": [0.6, 0.6, 0.6]
		},
		"head": {
			"rotation": [-1, 0, 0],
			"translation": [0, 10.5, 0],
			"scale": [0.5, 0.5, 0.5]
		},
		"fixed": {
			"rotation": [0, 90, 0],
			"translation": [0, 0, 4.75]
		}
	},
	"groups": [
		{
			"name": "middle",
			"origin": [8, 8, 8],
			"color": 0,
			"children": [0, 1, 2, 3, 4, 5, 6]
		}
	]
}