{
    "parent": "block/cube_bottom_top",
    "textures": {
        "bottom": "block/custom/terracotta/purple_top",
        "top": "block/custom/terracotta/purple_top",
        "side": "block/custom/terracotta/purple_side"
    }
}
