{
	"credit": "Made with Blockbench",
	"ambientocclusion": false,
	"elements": [
		{
			"from": [13, 12, 0],
			"to": [16, 15, 16],
			"rotation": {"angle": 0, "axis": "y", "origin": [23, 1, 0]},
			"faces": {
				"north": {"uv": [6, 6, 10, 10], "texture": "#3"},
				"east": {"uv": [0, 0, 16, 3], "texture": "#0"},
				"south": {"uv": [6, 6, 10, 10], "texture": "#3"},
				"west": {"uv": [0, 0, 16, 3], "texture": "#0"},
				"up": {"uv": [0, 0, 3, 16], "texture": "#0"},
				"down": {"uv": [0, 0, 3, 16], "texture": "#0"}
			}
		},
		{
			"from": [13, 0, 0],
			"to": [16, 3, 16],
			"rotation": {"angle": 0, "axis": "y", "origin": [23, 1, 0]},
			"faces": {
				"north": {"uv": [6, 6, 10, 10], "texture": "#3"},
				"east": {"uv": [0, 0, 16, 3], "texture": "#0"},
				"south": {"uv": [6, 6, 10, 10], "texture": "#3"},
				"west": {"uv": [0, 0, 16, 3], "texture": "#0"},
				"up": {"uv": [0, 0, 3, 16], "texture": "#0"},
				"down": {"uv": [0, 0, 3, 16], "texture": "#0"}
			}
		},
		{
			"from": [13.5, 2, 6.5],
			"to": [15.5, 13, 9.5],
			"rotation": {"angle": 0, "axis": "y", "origin": [20, -15, 0]},
			"faces": {
				"north": {"uv": [0, 0, 2, 11], "texture": "#0"},
				"east": {"uv": [0, 0, 3, 11], "texture": "#0"},
				"south": {"uv": [0, 0, 2, 11], "texture": "#0"},
				"west": {"uv": [0, 0, 3, 11], "texture": "#0"}
			}
		},
		{
			"from": [14, 3.8, 2.7],
			"to": [15, 14.8, 4.7],
			"rotation": {"angle": -22.5, "axis": "x", "origin": [14.5, 7.5, 8]},
			"faces": {
				"north": {"uv": [0, 0, 1, 11], "texture": "#0"},
				"east": {"uv": [0, 0, 2, 11], "texture": "#0"},
				"south": {"uv": [0, 0, 1, 11], "texture": "#0"},
				"west": {"uv": [0, 0, 2, 11], "texture": "#0"}
			}
		},
		{
			"from": [14, 4.90229, 9.61091],
			"to": [15, 15.90229, 11.61091],
			"rotation": {"angle": 22.5, "axis": "x", "origin": [14.5, 3.60229, 4.11091]},
			"faces": {
				"north": {"uv": [0, 5, 1, 16], "texture": "#0"},
				"east": {"uv": [2, 0, 4, 11], "rotation": 180, "texture": "#0"},
				"south": {"uv": [0, 5, 1, 16], "texture": "#0"},
				"west": {"uv": [2, 0, 4, 11], "rotation": 180, "texture": "#0"}
			}
		},
		{
			"from": [0, 0, 0],
			"to": [3, 3, 16],
			"rotation": {"angle": 0, "axis": "y", "origin": [10, 1, 0]},
			"faces": {
				"north": {"uv": [6, 6, 10, 10], "texture": "#3"},
				"east": {"uv": [0, 0, 16, 3], "texture": "#0"},
				"south": {"uv": [6, 6, 10, 10], "texture": "#3"},
				"west": {"uv": [0, 0, 16, 3], "texture": "#0"},
				"up": {"uv": [0, 0, 3, 16], "texture": "#0"},
				"down": {"uv": [0, 0, 3, 16], "texture": "#0"}
			}
		},
		{
			"from": [1, 3.8, 2.7],
			"to": [2, 14.8, 4.7],
			"rotation": {"angle": -22.5, "axis": "x", "origin": [1.5, 7.5, 8]},
			"faces": {
				"north": {"uv": [0, 0, 1, 11], "texture": "#0"},
				"east": {"uv": [0, 0, 2, 11], "texture": "#0"},
				"south": {"uv": [0, 0, 1, 11], "texture": "#0"},
				"west": {"uv": [0, 0, 2, 11], "texture": "#0"}
			}
		},
		{
			"from": [0, 12, 0],
			"to": [3, 15, 16],
			"rotation": {"angle": 0, "axis": "y", "origin": [10, 1, 0]},
			"faces": {
				"north": {"uv": [6, 6, 10, 10], "texture": "#3"},
				"east": {"uv": [0, 0, 16, 3], "texture": "#0"},
				"south": {"uv": [6, 6, 10, 10], "texture": "#3"},
				"west": {"uv": [0, 0, 16, 3], "texture": "#0"},
				"up": {"uv": [0, 0, 3, 16], "texture": "#0"},
				"down": {"uv": [0, 0, 3, 16], "texture": "#0"}
			}
		},
		{
			"from": [0.5, 2, 6.5],
			"to": [2.5, 13, 9.5],
			"rotation": {"angle": 0, "axis": "y", "origin": [7, -15, 0]},
			"faces": {
				"north": {"uv": [0, 0, 2, 11], "texture": "#0"},
				"east": {"uv": [0, 0, 3, 11], "texture": "#0"},
				"south": {"uv": [0, 0, 2, 11], "texture": "#0"},
				"west": {"uv": [0, 0, 3, 11], "texture": "#0"}
			}
		},
		{
			"from": [1, 4.90229, 9.61091],
			"to": [2, 15.90229, 11.61091],
			"rotation": {"angle": 22.5, "axis": "x", "origin": [1.5, 3.60229, 4.11091]},
			"faces": {
				"north": {"uv": [0, 5, 1, 16], "texture": "#0"},
				"east": {"uv": [2, 0, 4, 11], "rotation": 180, "texture": "#0"},
				"south": {"uv": [0, 5, 1, 16], "texture": "#0"},
				"west": {"uv": [2, 0, 4, 11], "rotation": 180, "texture": "#0"}
			}
		},
		{
			"from": [11, 14, -0.01],
			"to": [15, 16, 15.99],
			"rotation": {"angle": 0, "axis": "y", "origin": [8, 11, 8]},
			"faces": {
				"north": {"uv": [4, 13, 0, 15], "texture": "#2"},
				"east": {"uv": [1, 0, 3, 16], "rotation": 90, "texture": "#2"},
				"south": {"uv": [8, 1, 4, 3], "texture": "#2"},
				"west": {"uv": [0, 16, 2, 0], "rotation": 90, "texture": "#2"},
				"up": {"uv": [0, 0, 4, 16], "texture": "#2"},
				"down": {"uv": [15, 0, 11, 16], "rotation": 180, "texture": "#2"}
			}
		},
		{
			"from": [1, 14, -0.01],
			"to": [5, 16, 15.99],
			"rotation": {"angle": 0, "axis": "y", "origin": [8, 11, 8]},
			"faces": {
				"north": {"uv": [4, 13, 0, 15], "texture": "#2"},
				"east": {"uv": [1, 0, 3, 16], "rotation": 90, "texture": "#2"},
				"south": {"uv": [8, 1, 4, 3], "texture": "#2"},
				"west": {"uv": [0, 16, 2, 0], "rotation": 90, "texture": "#2"},
				"up": {"uv": [0, 0, 4, 16], "texture": "#2"},
				"down": {"uv": [15, 0, 11, 16], "rotation": 180, "texture": "#2"}
			}
		},
		{
			"from": [3, 12, 6.5],
			"to": [13, 15, 9.5],
			"rotation": {"angle": 0, "axis": "y", "origin": [16, 11, 8]},
			"faces": {
				"north": {"uv": [10, 8, 0, 11], "texture": "#2"},
				"south": {"uv": [10, 8, 0, 11], "texture": "#2"},
				"up": {"uv": [11, 0, 1, 3], "rotation": 180, "texture": "#2"},
				"down": {"uv": [10, 0, 0, 3], "texture": "#2"}
			}
		},
		{
			"from": [3, 0, 6.5],
			"to": [13, 3, 9.5],
			"rotation": {"angle": 0, "axis": "y", "origin": [16, 11, 8]},
			"faces": {
				"north": {"uv": [10, 8, 0, 11], "texture": "#2"},
				"south": {"uv": [10, 8, 0, 11], "texture": "#2"},
				"up": {"uv": [11, 0, 1, 3], "rotation": 180, "texture": "#2"},
				"down": {"uv": [10, 0, 0, 3], "texture": "#2"}
			}
		}
	],
	"display": {
		"thirdperson_righthand": {
			"rotation": [73, 8, 0],
			"translation": [-0.25, 0, 2.75],
			"scale": [0.4, 0.4, 0.4]
		},
		"thirdperson_lefthand": {
			"rotation": [73, 14, 0],
			"translation": [0, 0, 2.25],
			"scale": [0.4, 0.4, 0.4]
		},
		"firstperson_righthand": {
			"rotation": [0, 42, 0],
			"translation": [0, 0.75, 0],
			"scale": [0.4, 0.4, 0.4]
		},
		"firstperson_lefthand": {
			"rotation": [0, 23, 0],
			"translation": [0, 1.25, 0],
			"scale": [0.4, 0.4, 0.4]
		},
		"ground": {
			"scale": [0.31, 0.31, 0.31]
		},
		"gui": {
			"rotation": [25, 45, 0],
			"scale": [0.6, 0.6, 0.6]
		},
		"fixed": {
			"rotation": [0, 90, 0],
			"translation": [0, 0, 4.75]
		}
	}
}