{
  "parent": "minecraft:recipes/root",
  "rewards": {
    "recipes": [
      "techreborn:chemical_reactor/lime_stained_glass_pane_from_cyan_stained_glass_pane_with_yellow_dye"
    ]
  },
  "criteria": {
    "has_yellow_dye": {
      "trigger": "minecraft:inventory_changed",
      "conditions": {
        "items": [
          {
            "items": [
              "minecraft:yellow_dye"
            ]
          }
        ]
      }
    },
    "has_the_recipe": {
      "trigger": "minecraft:recipe_unlocked",
      "conditions": {
        "recipe": "techreborn:chemical_reactor/lime_stained_glass_pane_from_cyan_stained_glass_pane_with_yellow_dye"
      }
    }
  },
  "requirements": [
    [
      "has_yellow_dye",
      "has_the_recipe"
    ]
  ]
}