{
    "variants": {
        "": [
		{ "model": "block/flower/allium", "weight": 100 },
		{ "model": "block/flower/allium_a", "weight": 99 },
		{ "model": "block/flower/allium_b", "weight": 99 },
		{ "model": "block/flower/allium_c", "weight": 99 },
		{ "model": "block/flower/allium_d", "weight": 99 }
		]
    }
}
