{
    "variants": {
        "": [
			{ "model": "block/deepslate_gold_ore", "weight": 101 },
			{ "model": "block/deepslateore/gold_a", "weight": 100 },
			{ "model": "block/deepslateore/gold_b", "weight": 100 },
			{ "model": "block/deepslateore/gold_c", "weight": 100 }
		]
    }
}
