{
    "variants": {
        "": [
			{ "model": "block/iron_ore", "weight": 101 },
			{ "model": "block/ore/iron_a", "weight": 100 },
			{ "model": "block/ore/iron_b", "weight": 100 },
			{ "model": "block/ore/iron_c", "weight": 100 }
		]
    }
}
