{
    "__createdwith": "opl's Model Creator",
    "ambientocclusion": false,
    "textures": {
        "particle": "block/jungle_trapdoor"
    },
    "elements": [
        {
            "from": [13,0,13],
            "to": [16,16,16],
            "faces": {
                "up": {
                    "texture": "#particle"
                },
                "down": {
                    "uv": [13,16,16,13],
                    "texture": "#particle"
                },
                "west": {
                    "uv": [0,13,16,14],
                    "texture": "#particle",
                    "rotation": 90
                },
                "east": {
                    "uv": [0,13,16,16],
                    "texture": "#particle",
                    "rotation": 90
                },
                "north": {
                    "uv": [0,0,3,16],
                    "texture": "#particle"
                },
                "south": {
                    "texture": "#particle"
                }
            }
        },
        {
            "from": [0,0,13],
            "to": [3,16,16],
            "faces": {
                "up": {
                    "texture": "#particle"
                },
                "down": {
                    "uv": [0,16,3,13],
                    "texture": "#particle"
                },
                "west": {
                    "uv": [0,13,16,16],
                    "texture": "#particle",
                    "rotation": 270
                },
                "east": {
                    "uv": [0,13,16,14],
                    "texture": "#particle",
                    "rotation": 90
                },
                "north": {
                    "uv": [13,0,16,16],
                    "texture": "#particle"
                },
                "south": {
                    "texture": "#particle"
                }
            }
        },
        {
            "from": [3,13,13],
            "to": [13,16,16],
            "faces": {
                "up": {
                    "texture": "#particle"
                },
                "down": {
                    "uv": [3,13,13,14],
                    "texture": "#particle"
                },
                "north": {
                    "texture": "#particle"
                },
                "south": {
                    "texture": "#particle"
                }
            }
        },
        {
            "from": [3,0,13],
            "to": [13,3,16],
            "faces": {
                "up": {
                    "uv": [3,13,13,14],
                    "texture": "#particle"
                },
                "down": {
                    "uv": [3,16,13,13],
                    "texture": "#particle"
                },
                "north": {
                    "texture": "#particle"
                },
                "south": {
                    "texture": "#particle"
                }
            }
        },
        {
            "from": [4,3,14],
            "to": [7,13,15],
            "faces": {
                "west": {
                    "uv": [13,4,14,14],
                    "texture": "#particle"
                },
                "east": {
                    "uv": [13,4,14,14],
                    "texture": "#particle"
                },
                "north": {
                    "uv": [9,3,12,13],
                    "texture": "#particle"
                },
                "south": {
                    "texture": "#particle"
                }
            }
        },
        {
            "from": [9,3,14],
            "to": [12,13,15],
            "faces": {
                "west": {
                    "uv": [13,4,14,14],
                    "texture": "#particle"
                },
                "east": {
                    "uv": [13,4,14,14],
                    "texture": "#particle"
                },
                "north": {
                    "uv": [4,3,7,13],
                    "texture": "#particle"
                },
                "south": {
                    "texture": "#particle"
                }
            }
        },
        {
            "from": [3,9,14],
            "to": [13,12,15],
            "faces": {
                "up": {
                    "uv": [3,13,13,14],
                    "texture": "#particle"
                },
                "down": {
                    "uv": [3,13,13,14],
                    "texture": "#particle"
                },
                "north": {
                    "texture": "#particle"
                },
                "south": {
                    "texture": "#particle"
                }
            }
        },
        {
            "from": [3,4,14],
            "to": [13,7,15],
            "faces": {
                "up": {
                    "uv": [3,13,13,14],
                    "texture": "#particle"
                },
                "down": {
                    "uv": [3,13,13,14],
                    "texture": "#particle"
                },
                "north": {
                    "texture": "#particle"
                },
                "south": {
                    "texture": "#particle"
                }
            }
        }
    ]
}