{
  "parent": "minecraft:recipes/root",
  "rewards": {
    "recipes": [
      "techreborn:compressor/lazurite_plate"
    ]
  },
  "criteria": {
    "has_tag_c_lazurite_dusts": {
      "trigger": "minecraft:inventory_changed",
      "conditions": {
        "items": [
          {
            "tag": "c:lazurite_dusts"
          }
        ]
      }
    },
    "has_the_recipe": {
      "trigger": "minecraft:recipe_unlocked",
      "conditions": {
        "recipe": "techreborn:compressor/lazurite_plate"
      }
    }
  },
  "requirements": [
    [
      "has_tag_c_lazurite_dusts",
      "has_the_recipe"
    ]
  ]
}