{
  "parent": "minecraft:block/stairs",
  "textures": {
    "bottom": "block/custom/mossycobblestone/d",
    "top": "block/custom/mossycobblestone/d",
    "side": "block/custom/mossycobblestone/d"
  }
}