{
  "parent": "minecraft:block/stairs",
  "textures": {
    "bottom": "block/custom/mossystonebricks/e",
    "top": "block/custom/mossystonebricks/e",
    "side": "block/custom/mossystonebricks/e"
  }
}