{
  "parent": "minecraft:recipes/root",
  "rewards": {
    "recipes": [
      "techreborn:industrial_sawmill/crimson_planks"
    ]
  },
  "criteria": {
    "has_the_recipe": {
      "trigger": "minecraft:recipe_unlocked",
      "conditions": {
        "recipe": "techreborn:industrial_sawmill/crimson_planks"
      }
    }
  },
  "requirements": [
    [
      "has_the_recipe"
    ]
  ]
}