{
  "parent": "minecraft:recipes/root",
  "rewards": {
    "recipes": [
      "techreborn:industrial_sawmill/saw_dust_from_wooden_trapdoors"
    ]
  },
  "criteria": {
    "has_tag_minecraft_wooden_trapdoors": {
      "trigger": "minecraft:inventory_changed",
      "conditions": {
        "items": [
          {
            "tag": "minecraft:wooden_trapdoors"
          }
        ]
      }
    },
    "has_the_recipe": {
      "trigger": "minecraft:recipe_unlocked",
      "conditions": {
        "recipe": "techreborn:industrial_sawmill/saw_dust_from_wooden_trapdoors"
      }
    }
  },
  "requirements": [
    [
      "has_tag_minecraft_wooden_trapdoors",
      "has_the_recipe"
    ]
  ]
}