{
  "parent": "minecraft:recipes/root",
  "rewards": {
    "recipes": [
      "techreborn:industrial_sawmill/saw_small_dust_from_bowl"
    ]
  },
  "criteria": {
    "has_bowl": {
      "trigger": "minecraft:inventory_changed",
      "conditions": {
        "items": [
          {
            "items": [
              "minecraft:bowl"
            ]
          }
        ]
      }
    },
    "has_the_recipe": {
      "trigger": "minecraft:recipe_unlocked",
      "conditions": {
        "recipe": "techreborn:industrial_sawmill/saw_small_dust_from_bowl"
      }
    }
  },
  "requirements": [
    [
      "has_bowl",
      "has_the_recipe"
    ]
  ]
}