{
	"parent": "mcwbridges:block/bridge/bridge_stone/parent/side_right",
	"textures": {
		"2": "minecraft:block/polished_blackstone_bricks",
		"particle": "minecraft:block/polished_blackstone_bricks"
	}
}
