{
	"parent": "mcwbridges:block/bridge/bridge_stone/parent/inventory",
	"textures": {
		"2": "minecraft:block/red_sandstone",
		"particle": "minecraft:block/red_sand",
		"2_2": "minecraft:block/red_sand"
	}
}
