{
  "replace": false,
  "values": [
    "techreborn:almandine_small_dust",
    "techreborn:andesite_small_dust",
    "techreborn:andradite_small_dust",
    "techreborn:ashes_small_dust",
    "techreborn:basalt_small_dust",
    "techreborn:bauxite_small_dust",
    "techreborn:calcite_small_dust",
    "techreborn:charcoal_small_dust",
    "techreborn:chrome_small_dust",
    "techreborn:cinnabar_small_dust",
    "techreborn:clay_small_dust",
    "techreborn:coal_small_dust",
    "techreborn:dark_ashes_small_dust",
    "techreborn:diamond_small_dust",
    "techreborn:diorite_small_dust",
    "techreborn:electrum_small_dust",
    "techreborn:emerald_small_dust",
    "techreborn:ender_eye_small_dust",
    "techreborn:ender_pearl_small_dust",
    "techreborn:endstone_small_dust",
    "techreborn:flint_small_dust",
    "techreborn:galena_small_dust",
    "techreborn:glowstone_small_dust",
    "techreborn:granite_small_dust",
    "techreborn:grossular_small_dust",
    "techreborn:invar_small_dust",
    "techreborn:lazurite_small_dust",
    "techreborn:magnesium_small_dust",
    "techreborn:manganese_small_dust",
    "techreborn:marble_small_dust",
    "techreborn:netherrack_small_dust",
    "techreborn:nickel_small_dust",
    "techreborn:obsidian_small_dust",
    "techreborn:olivine_small_dust",
    "techreborn:peridot_small_dust",
    "techreborn:phosphorous_small_dust",
    "techreborn:platinum_small_dust",
    "techreborn:pyrite_small_dust",
    "techreborn:pyrope_small_dust",
    "techreborn:quartz_small_dust",
    "techreborn:redstone_small_dust",
    "techreborn:red_garnet_small_dust",
    "techreborn:ruby_small_dust",
    "techreborn:saltpeter_small_dust",
    "techreborn:sapphire_small_dust",
    "techreborn:saw_small_dust",
    "techreborn:sodalite_small_dust",
    "techreborn:spessartine_small_dust",
    "techreborn:sphalerite_small_dust",
    "techreborn:steel_small_dust",
    "techreborn:sulfur_small_dust",
    "techreborn:titanium_small_dust",
    "techreborn:tungsten_small_dust",
    "techreborn:uvarovite_small_dust",
    "techreborn:yellow_garnet_small_dust",
    "techreborn:zinc_small_dust"
  ]
}