{
    "variants": {
        "": [
		{ "model": "block/birch_leaves", "weight":101 },
		{ "model": "block/birch_leaves", "weight":100, "x":180, "y":180, "z":180 },
		
		{ "model": "block/leaves/birch_flowering_a", "weight":10 },
		{ "model": "block/leaves/birch_flowering_a", "weight":10, "x":180, "y":180, "z":180 },
		
		{ "model": "block/leaves/birch_flowering_b", "weight":10 },
		{ "model": "block/leaves/birch_flowering_b", "weight":10, "x":180, "y":180, "z":180 }
		]
    }
}