{
    "variants": {
        "": [
		{ "model": "block/bricks", "weight": 101 },
		{ "model": "block/bricks/a", "weight": 100 },
		{ "model": "block/bricks/b", "weight": 100 },
		{ "model": "block/bricks/c", "weight": 100 }
		]
    }
}
