{
    "variants": {
        "bites=0": { "model": "block/cake/full" },
        "bites=1": { "model": "block/cake/slice1" },
        "bites=2": { "model": "block/cake/slice2" },
        "bites=3": { "model": "block/cake/slice3" },
        "bites=4": { "model": "block/cake/slice4" },
        "bites=5": { "model": "block/cake/slice5" },
        "bites=6": { "model": "block/cake/slice6" }
    }
}
