{
    "variants": {
        "": [
			{ "model": "block/coal_ore", "weight": 101 },
			{ "model": "block/ore/coal_a", "weight": 100 },
			{ "model": "block/ore/coal_b", "weight": 100 },
			{ "model": "block/ore/coal_c", "weight": 100 }
		]
    }
}
