{
    "variants": {
        "": [
		{ "model": "block/frogspawn", "weight": 100 },
		{ "model": "block/frogspawn", "weight": 100, "y": 90 },
		{ "model": "block/frogspawn", "weight": 100, "y": 180 },
		{ "model": "block/frogspawn", "weight": 100, "y": 270 }
		]
    }
}