{
    "variants": {
        "": [
			{ "model": "block/gold_ore", "weight": 101 },
			{ "model": "block/ore/gold_a", "weight": 100 },
			{ "model": "block/ore/gold_b", "weight": 100 },
			{ "model": "block/ore/gold_c", "weight": 100 }
		]
    }
}
