{
    "variants": {
        "": [
			{ "model": "block/nether_quartz_ore", "weight": 101 },
			{ "model": "block/netherquartzore/a", "weight": 100 },
			{ "model": "block/netherquartzore/b", "weight": 100 },
			{ "model": "block/netherquartzore/c", "weight": 100 }
		]
    }
}
