{
  "parent": "minecraft:block/slab",
  "textures": {
    "bottom": "block/custom/cobbleddeepslate/b",
    "top": "block/custom/cobbleddeepslate/b",
    "side": "block/custom/cobbleddeepslate/b"
  }
}