{
  "parent": "minecraft:recipes/root",
  "rewards": {
    "recipes": [
      "techreborn:grinder/saw_small_dust_from_signs"
    ]
  },
  "criteria": {
    "has_tag_minecraft_signs": {
      "trigger": "minecraft:inventory_changed",
      "conditions": {
        "items": [
          {
            "tag": "minecraft:signs"
          }
        ]
      }
    },
    "has_the_recipe": {
      "trigger": "minecraft:recipe_unlocked",
      "conditions": {
        "recipe": "techreborn:grinder/saw_small_dust_from_signs"
      }
    }
  },
  "requirements": [
    [
      "has_tag_minecraft_signs",
      "has_the_recipe"
    ]
  ]
}