{
  "parent": "minecraft:recipes/root",
  "rewards": {
    "recipes": [
      "techreborn:grinder/saw_small_dust_from_planks"
    ]
  },
  "criteria": {
    "has_tag_minecraft_planks": {
      "trigger": "minecraft:inventory_changed",
      "conditions": {
        "items": [
          {
            "tag": "minecraft:planks"
          }
        ]
      }
    },
    "has_the_recipe": {
      "trigger": "minecraft:recipe_unlocked",
      "conditions": {
        "recipe": "techreborn:grinder/saw_small_dust_from_planks"
      }
    }
  },
  "requirements": [
    [
      "has_tag_minecraft_planks",
      "has_the_recipe"
    ]
  ]
}