{
	"credit": "Made with Blockbench",
	"parent": "block/block",
	"textures": {
		"particle": "farmersdelight:block/stuffed_pumpkin_bottom",
		"bottom": "farmersdelight:block/stuffed_pumpkin_bottom",
		"details": "farmersdelight:block/stuffed_pumpkin_details",
		"side": "farmersdelight:block/stuffed_pumpkin_side",
		"top": "farmersdelight:block/stuffed_pumpkin_top"
	},
	"elements": [
		{
			"name": "spoon",
			"from": [8, 8, 7],
			"to": [10, 18, 9],
			"rotation": {"angle": -22.5, "axis": "z", "origin": [9, 9, 8]},
			"faces": {
				"north": {"uv": [2, 3, 4, 13], "texture": "#details"},
				"east": {"uv": [2, 3, 4, 13], "rotation": 180, "texture": "#details"},
				"south": {"uv": [2, 3, 4, 13], "texture": "#details"},
				"west": {"uv": [2, 3, 4, 13], "rotation": 180, "texture": "#details"},
				"up": {"uv": [2, 1, 4, 3], "texture": "#details"},
				"down": {"uv": [2, 1, 4, 3], "texture": "#details"}
			}
		},
		{
			"name": "stuffing",
			"from": [4, 10, 4],
			"to": [12, 12, 12],
			"faces": {
				"north": {"uv": [6, 4, 14, 6], "rotation": 180, "texture": "#details"},
				"east": {"uv": [12, 4, 14, 12], "rotation": 90, "texture": "#details"},
				"south": {"uv": [6, 10, 14, 12], "texture": "#details"},
				"west": {"uv": [6, 4, 8, 12], "rotation": 270, "texture": "#details"},
				"up": {"uv": [6, 4, 14, 12], "texture": "#details"},
				"down": {"uv": [6, 4, 14, 12], "texture": "#details"}
			}
		},
		{
			"name": "pumpkin",
			"from": [2, 0, 2],
			"to": [14, 10, 14],
			"faces": {
				"north": {"uv": [2, 6, 14, 16], "texture": "#side"},
				"east": {"uv": [2, 6, 14, 16], "texture": "#side"},
				"south": {"uv": [2, 6, 14, 16], "texture": "#side"},
				"west": {"uv": [2, 6, 14, 16], "texture": "#side"},
				"up": {"uv": [2, 2, 14, 14], "texture": "#top"},
				"down": {"uv": [2, 2, 14, 14], "texture": "#bottom"}
			}
		}
	]
}