{
  "type": "techreborn:chemical_reactor",
  "power": 25,
  "time": 250,
  "ingredients": [
    {
      "item": "minecraft:red_dye",
      "count": 1
    },
    {
      "item": "minecraft:green_wool",
      "count": 4
    }
  ],
  "results": [
    {
      "item": "minecraft:brown_wool",
      "count": 4
    }
  ]
}