{
  "type": "techreborn:chemical_reactor",
  "power": 25,
  "time": 250,
  "ingredients": [
    {
      "item": "minecraft:cyan_dye",
      "count": 1
    },
    {
      "item": "minecraft:yellow_stained_glass_pane",
      "count": 16
    }
  ],
  "results": [
    {
      "item": "minecraft:lime_stained_glass_pane",
      "count": 16
    }
  ]
}