{
  "type": "techreborn:chemical_reactor",
  "power": 25,
  "time": 250,
  "ingredients": [
    {
      "item": "minecraft:pink_dye",
      "count": 1
    },
    {
      "item": "minecraft:purple_carpet",
      "count": 8
    }
  ],
  "results": [
    {
      "item": "minecraft:magenta_carpet",
      "count": 8
    }
  ]
}